{

	"userId": "malakasAkoSaShopee",
	"transactionDate": "03/20/2023",
	"status": "single",
	"total": 4

}

{

	"userId": "gumaguma123",
	"transactionDate": "03/25/2023",
	"status": "single",
	"total": 1

}



{

	"userId": "eatsleeprepeat23",
	"transactionDate": "03/21/2023",
	"status": "single",
	"total": 3

}